{
  "id": "http://json-schema.org/draft-04/schema#",
  "$schema": "http://json-schema.org/draft-04/schema#",
  "description": "Json Schema - New Booking",
  "type": "object",
  "required": ["booking"],
  "properties": {
    "booking": {
      "type": "object",
      "required": ["date", "movie_theater_id", "movie_id", "user_attributes"],
      "properties": {
        "date": {
          "type": "date"
        },
        "movie_theater_id": {
          "type": "integer"
        },
        "movie_id": {
          "type": "integer"
        },
        "name": {
          "type": "string"
        },
        "user_attributes": {
          "type": "object",
          "required": ["email", "document", "name", "cell_phone"],
          "properties": {
            "email": {
              "type": "string"
            },
            "document": {
              "type": "integer"
            },
            "name": {
              "type": "string"
            },
            "cell_phone": {
              "type": "integer"
            }
          }
        }
      }
    }
  }
}